<?xml version="1.0" encoding="UTF-8" standalone="no"?>
<!-- Created with Inkscape (http://www.inkscape.org/) -->

<svg
   width="66.515617mm"
   height="26.01746mm"
   viewBox="0 0 66.515617 26.017461"
   version="1.1"
   id="svg5"
   sodipodi:docname="shape-parallelogramm.svg"
   inkscape:version="1.2 (1:1.2.1+202207142221+cd75a1ee6d)"
   xmlns:inkscape="http://www.inkscape.org/namespaces/inkscape"
   xmlns:sodipodi="http://sodipodi.sourceforge.net/DTD/sodipodi-0.dtd"
   xmlns="http://www.w3.org/2000/svg"
   xmlns:svg="http://www.w3.org/2000/svg">
  <sodipodi:namedview
     id="namedview7"
     pagecolor="#ffffff"
     bordercolor="#666666"
     borderopacity="1.0"
     inkscape:showpageshadow="2"
     inkscape:pageopacity="0.0"
     inkscape:pagecheckerboard="0"
     inkscape:deskcolor="#d1d1d1"
     inkscape:document-units="mm"
     showgrid="false"
     inkscape:zoom="0.78038721"
     inkscape:cx="221.68482"
     inkscape:cy="-28.191134"
     inkscape:window-width="1848"
     inkscape:window-height="1043"
     inkscape:window-x="1992"
     inkscape:window-y="0"
     inkscape:window-maximized="1"
     inkscape:current-layer="layer1" />
  <defs
     id="defs2" />
  <g
     inkscape:label="Layer 1"
     inkscape:groupmode="layer"
     id="layer1"
     transform="translate(-18.305167,-138.82921)">
    <rect
       style="fill:#d5e5ff;fill-opacity:1;stroke:#0066ff;stroke-width:3.43669;stroke-linecap:square;stroke-linejoin:miter;stroke-dashoffset:69.5433;stroke-opacity:1;paint-order:markers stroke fill"
       id="rect1110"
       width="40.96909"
       height="30.706436"
       x="160.11148"
       y="183.90613"
       transform="matrix(1,0,-0.64756335,0.76201162,0,0)" />
  </g>
</svg>
