<?xml version="1.0" encoding="UTF-8" standalone="no"?>
<!-- Created with Inkscape (http://www.inkscape.org/) -->

<svg
   width="554.98419mm"
   height="166.06395mm"
   viewBox="0 0 554.98419 166.06395"
   version="1.1"
   id="svg73026"
   xml:space="preserve"
   inkscape:version="1.2.2 (1:1.2.2+202305151915+b0a8486541)"
   sodipodi:docname="worksheet-fields-partially-filled-for-presentation-slides.svg"
   xmlns:inkscape="http://www.inkscape.org/namespaces/inkscape"
   xmlns:sodipodi="http://sodipodi.sourceforge.net/DTD/sodipodi-0.dtd"
   xmlns="http://www.w3.org/2000/svg"
   xmlns:svg="http://www.w3.org/2000/svg"><sodipodi:namedview
     id="namedview73028"
     pagecolor="#ffffff"
     bordercolor="#666666"
     borderopacity="1.0"
     inkscape:showpageshadow="2"
     inkscape:pageopacity="0.0"
     inkscape:pagecheckerboard="0"
     inkscape:deskcolor="#d1d1d1"
     inkscape:document-units="mm"
     showgrid="false"
     inkscape:zoom="0.40222012"
     inkscape:cx="1331.3606"
     inkscape:cy="504.69877"
     inkscape:window-width="1848"
     inkscape:window-height="1043"
     inkscape:window-x="3912"
     inkscape:window-y="0"
     inkscape:window-maximized="1"
     inkscape:current-layer="layer1-2" /><defs
     id="defs73023"><rect
       x="-826.22375"
       y="335.07675"
       width="2015.085"
       height="625.75354"
       id="rect75799" /><marker
       style="overflow:visible"
       id="TriangleStart"
       refX="0"
       refY="0"
       orient="auto-start-reverse"
       inkscape:stockid="TriangleStart"
       markerWidth="14"
       markerHeight="15.076923"
       viewBox="0 0 5.3244081 6.1553851"
       inkscape:isstock="true"
       inkscape:collect="always"
       preserveAspectRatio="xMidYMid"><path
         transform="scale(0.5)"
         style="fill:context-stroke;fill-rule:evenodd;stroke:context-stroke;stroke-width:1pt"
         d="M 5.77,0 -2.88,5 V -5 Z"
         id="path135" /></marker><inkscape:path-effect
       effect="tiling"
       id="path-effect1005"
       is_visible="true"
       lpeversion="1"
       unit="px"
       seed="1;1"
       lpesatellites=""
       num_rows="4"
       num_cols="25"
       gapx="0"
       gapy="80"
       offset="0"
       offset_type="false"
       scale="0"
       rotate="0"
       mirrorrowsx="false"
       mirrorrowsy="false"
       mirrorcolsx="false"
       mirrorcolsy="false"
       mirrortrans="false"
       shrink_interp="false"
       split_items="false"
       link_styles="false"
       interpolate_scalex="false"
       interpolate_scaley="true"
       interpolate_rotatex="false"
       interpolate_rotatey="true"
       random_scale="false"
       random_rotate="false"
       random_gap_y="false"
       random_gap_x="false"
       transformorigin="" /><inkscape:path-effect
       effect="clone_original"
       linkeditem=""
       id="path-effect1003"
       is_visible="true"
       lpeversion="1"
       method="d"
       attributes=""
       css_properties=""
       allow_transforms="true" /><inkscape:path-effect
       effect="tiling"
       id="path-effect1005-2"
       is_visible="true"
       lpeversion="1"
       unit="px"
       seed="1;1"
       lpesatellites=""
       num_rows="3"
       num_cols="10"
       gapx="0"
       gapy="0"
       offset="0"
       offset_type="false"
       scale="0"
       rotate="0"
       mirrorrowsx="false"
       mirrorrowsy="false"
       mirrorcolsx="false"
       mirrorcolsy="false"
       mirrortrans="false"
       shrink_interp="false"
       split_items="false"
       link_styles="false"
       interpolate_scalex="false"
       interpolate_scaley="true"
       interpolate_rotatex="false"
       interpolate_rotatey="true"
       random_scale="false"
       random_rotate="false"
       random_gap_y="false"
       random_gap_x="false"
       transformorigin="" /><inkscape:path-effect
       effect="tiling"
       id="path-effect1005-1"
       is_visible="true"
       lpeversion="1"
       unit="px"
       seed="1;1"
       lpesatellites=""
       num_rows="4"
       num_cols="25"
       gapx="0"
       gapy="80"
       offset="0"
       offset_type="false"
       scale="0"
       rotate="0"
       mirrorrowsx="false"
       mirrorrowsy="false"
       mirrorcolsx="false"
       mirrorcolsy="false"
       mirrortrans="false"
       shrink_interp="false"
       split_items="false"
       link_styles="false"
       interpolate_scalex="false"
       interpolate_scaley="true"
       interpolate_rotatex="false"
       interpolate_rotatey="true"
       random_scale="false"
       random_rotate="false"
       random_gap_y="false"
       random_gap_x="false"
       transformorigin="" /><inkscape:path-effect
       effect="tiling"
       id="path-effect1005-7"
       is_visible="true"
       lpeversion="1"
       unit="px"
       seed="1;1"
       lpesatellites=""
       num_rows="4"
       num_cols="25"
       gapx="0"
       gapy="80"
       offset="0"
       offset_type="false"
       scale="0"
       rotate="0"
       mirrorrowsx="false"
       mirrorrowsy="false"
       mirrorcolsx="false"
       mirrorcolsy="false"
       mirrortrans="false"
       shrink_interp="false"
       split_items="false"
       link_styles="false"
       interpolate_scalex="false"
       interpolate_scaley="true"
       interpolate_rotatex="false"
       interpolate_rotatey="true"
       random_scale="false"
       random_rotate="false"
       random_gap_y="false"
       random_gap_x="false"
       transformorigin="" /><marker
       style="overflow:visible"
       id="TriangleStart-0"
       refX="0"
       refY="0"
       orient="auto-start-reverse"
       inkscape:stockid="TriangleStart"
       markerWidth="14"
       markerHeight="15.076923"
       viewBox="0 0 5.3244081 6.1553851"
       inkscape:isstock="true"
       inkscape:collect="always"
       preserveAspectRatio="xMidYMid"><path
         transform="scale(0.5)"
         style="fill:context-stroke;fill-rule:evenodd;stroke:context-stroke;stroke-width:1pt"
         d="M 5.77,0 -2.88,5 V -5 Z"
         id="path135-6" /></marker><marker
       style="overflow:visible"
       id="TriangleStart-0-6"
       refX="0"
       refY="0"
       orient="auto-start-reverse"
       inkscape:stockid="TriangleStart"
       markerWidth="14"
       markerHeight="15.076923"
       viewBox="0 0 5.3244081 6.1553851"
       inkscape:isstock="true"
       inkscape:collect="always"
       preserveAspectRatio="xMidYMid"><path
         transform="scale(0.5)"
         style="fill:context-stroke;fill-rule:evenodd;stroke:context-stroke;stroke-width:1pt"
         d="M 5.77,0 -2.88,5 V -5 Z"
         id="path135-6-1" /></marker></defs><g
     inkscape:label="Layer 1"
     inkscape:groupmode="layer"
     id="layer1"
     transform="translate(218.85503,-88.40572)"><g
       inkscape:label="Layer 1"
       id="layer1-2"
       transform="translate(-134.90529,16.497472)"><path
         style="fill:none;stroke:#000000;stroke-width:0.5;stroke-linecap:round;stroke-linejoin:round;stroke-dasharray:none;stroke-opacity:1;paint-order:stroke markers fill"
         id="rect234"
         width="21.326315"
         height="25.515987"
         x="15.32017"
         y="35.471191"
         inkscape:path-effect="#path-effect1005"
         class="UnoptimicedTransforms"
         d="M 15.32017,35.471191 H 36.646485 V 60.987179 H 15.32017 Z m 21.326315,0 H 57.9728 V 60.987179 H 36.646485 Z m 21.326315,0 H 79.299115 V 60.987179 H 57.9728 Z m 21.326315,0 H 100.62543 V 60.987179 H 79.299115 Z m 21.326315,0 h 21.32632 v 25.515988 h -21.32632 z m 21.32632,0 h 21.32631 v 25.515988 h -21.32631 z m 21.32631,0 h 21.32631 v 25.515988 h -21.32631 z m 21.32631,0 h 21.32632 v 25.515988 h -21.32632 z m 21.32632,0 H 207.257 v 25.515988 h -21.32631 z m 21.32631,0 h 21.32632 V 60.987179 H 207.257 Z m 21.32632,0 h 21.32631 v 25.515988 h -21.32631 z m 21.32631,0 h 21.32632 v 25.515988 h -21.32632 z m 21.32632,0 h 21.32631 v 25.515988 h -21.32631 z m 21.32631,0 h 21.32632 v 25.515988 h -21.32632 z m 21.32632,0 h 21.32631 v 25.515988 h -21.32631 z m 21.32631,0 h 21.32632 v 25.515988 h -21.32632 z m 21.32632,0 h 21.32631 v 25.515988 h -21.32631 z m 21.32631,0 h 21.32632 v 25.515988 h -21.32632 z m 21.32632,0 h 21.32631 v 25.515988 h -21.32631 z m 21.32631,0 h 21.32632 v 25.515988 h -21.32632 z m 21.32632,0 h 21.32631 v 25.515988 h -21.32631 z m 21.32631,0 h 21.32632 v 25.515988 h -21.32632 z m 21.32632,0 h 21.32631 V 60.987179 H 484.4991 Z m 21.32631,0 h 21.32632 v 25.515988 h -21.32632 z m 21.32632,0 h 21.32631 V 60.987179 H 527.15173 Z M 15.32017,82.153845 H 36.646485 V 107.66983 H 15.32017 Z m 21.326315,0 H 57.9728 V 107.66983 H 36.646485 Z m 21.326315,0 H 79.299115 V 107.66983 H 57.9728 Z m 21.326315,0 H 100.62543 V 107.66983 H 79.299115 Z m 21.326315,0 h 21.32632 v 25.515985 h -21.32632 z m 21.32632,0 h 21.32631 v 25.515985 h -21.32631 z m 21.32631,0 h 21.32631 v 25.515985 h -21.32631 z m 21.32631,0 h 21.32632 v 25.515985 h -21.32632 z m 21.32632,0 H 207.257 v 25.515985 h -21.32631 z m 21.32631,0 h 21.32632 V 107.66983 H 207.257 Z m 21.32632,0 h 21.32631 v 25.515985 h -21.32631 z m 21.32631,0 h 21.32632 v 25.515985 h -21.32632 z m 21.32632,0 h 21.32631 v 25.515985 h -21.32631 z m 21.32631,0 h 21.32632 v 25.515985 h -21.32632 z m 21.32632,0 h 21.32631 v 25.515985 h -21.32631 z m 21.32631,0 h 21.32632 v 25.515985 h -21.32632 z m 21.32632,0 h 21.32631 v 25.515985 h -21.32631 z m 21.32631,0 h 21.32632 v 25.515985 h -21.32632 z m 21.32632,0 h 21.32631 v 25.515985 h -21.32631 z m 21.32631,0 h 21.32632 v 25.515985 h -21.32632 z m 21.32632,0 h 21.32631 v 25.515985 h -21.32631 z m 21.32631,0 h 21.32632 v 25.515985 h -21.32632 z m 21.32632,0 h 21.32631 V 107.66983 H 484.4991 Z m 21.32631,0 h 21.32632 v 25.515985 h -21.32632 z m 21.32632,0 h 21.32631 V 107.66983 H 527.15173 Z M 15.32017,128.8365 h 21.326315 v 25.51599 H 15.32017 Z m 21.326315,0 H 57.9728 v 25.51599 H 36.646485 Z m 21.326315,0 h 21.326315 v 25.51599 H 57.9728 Z m 21.326315,0 h 21.326315 v 25.51599 H 79.299115 Z m 21.326315,0 h 21.32632 v 25.51599 h -21.32632 z m 21.32632,0 h 21.32631 v 25.51599 h -21.32631 z m 21.32631,0 h 21.32631 v 25.51599 h -21.32631 z m 21.32631,0 h 21.32632 v 25.51599 h -21.32632 z m 21.32632,0 H 207.257 v 25.51599 h -21.32631 z m 21.32631,0 h 21.32632 v 25.51599 H 207.257 Z m 21.32632,0 h 21.32631 v 25.51599 h -21.32631 z m 21.32631,0 h 21.32632 v 25.51599 h -21.32632 z m 21.32632,0 h 21.32631 v 25.51599 h -21.32631 z m 21.32631,0 h 21.32632 v 25.51599 h -21.32632 z m 21.32632,0 h 21.32631 v 25.51599 h -21.32631 z m 21.32631,0 h 21.32632 v 25.51599 h -21.32632 z m 21.32632,0 h 21.32631 v 25.51599 h -21.32631 z m 21.32631,0 h 21.32632 v 25.51599 h -21.32632 z m 21.32632,0 h 21.32631 v 25.51599 h -21.32631 z m 21.32631,0 h 21.32632 v 25.51599 h -21.32632 z m 21.32632,0 h 21.32631 v 25.51599 h -21.32631 z m 21.32631,0 h 21.32632 v 25.51599 h -21.32632 z m 21.32632,0 h 21.32631 v 25.51599 H 484.4991 Z m 21.32631,0 h 21.32632 v 25.51599 h -21.32632 z m 21.32632,0 h 21.32631 v 25.51599 H 527.15173 Z M 15.32017,175.51915 h 21.326315 v 25.51599 H 15.32017 Z m 21.326315,0 H 57.9728 v 25.51599 H 36.646485 Z m 21.326315,0 h 21.326315 v 25.51599 H 57.9728 Z m 21.326315,0 h 21.326315 v 25.51599 H 79.299115 Z m 21.326315,0 h 21.32632 v 25.51599 h -21.32632 z m 21.32632,0 h 21.32631 v 25.51599 h -21.32631 z m 21.32631,0 h 21.32631 v 25.51599 h -21.32631 z m 21.32631,0 h 21.32632 v 25.51599 h -21.32632 z m 21.32632,0 H 207.257 v 25.51599 h -21.32631 z m 21.32631,0 h 21.32632 v 25.51599 H 207.257 Z m 21.32632,0 h 21.32631 v 25.51599 h -21.32631 z m 21.32631,0 h 21.32632 v 25.51599 h -21.32632 z m 21.32632,0 h 21.32631 v 25.51599 h -21.32631 z m 21.32631,0 h 21.32632 v 25.51599 h -21.32632 z m 21.32632,0 h 21.32631 v 25.51599 h -21.32631 z m 21.32631,0 h 21.32632 v 25.51599 h -21.32632 z m 21.32632,0 h 21.32631 v 25.51599 h -21.32631 z m 21.32631,0 h 21.32632 v 25.51599 h -21.32632 z m 21.32632,0 h 21.32631 v 25.51599 h -21.32631 z m 21.32631,0 h 21.32632 v 25.51599 h -21.32632 z m 21.32632,0 h 21.32631 v 25.51599 h -21.32631 z m 21.32631,0 h 21.32632 v 25.51599 h -21.32632 z m 21.32632,0 h 21.32631 v 25.51599 H 484.4991 Z m 21.32631,0 h 21.32632 v 25.51599 h -21.32632 z m 21.32632,0 h 21.32631 v 25.51599 h -21.32631 z"
         sodipodi:type="rect"
         transform="translate(-99.019911,36.687057)" /><path
         style="fill:none;stroke:#000000;stroke-width:0.5;stroke-linecap:round;stroke-linejoin:round;stroke-dasharray:none;stroke-opacity:1;paint-order:stroke markers fill"
         id="rect234-2"
         width="21.326315"
         height="25.515987"
         x="449.45813"
         y="212.20621"
         sodipodi:type="rect"
         d="m 449.45813,212.20621 h 21.32631 v 25.51598 h -21.32631 z" /><path
         style="fill:none;stroke:#000000;stroke-width:0.4;stroke-linecap:butt;stroke-linejoin:miter;stroke-dasharray:none;stroke-opacity:1;marker-end:url(#TriangleStart)"
         d="m 449.45813,87.792305 c 14.47475,1.370961 17.60096,14.032455 3.89336,17.021185 -62.17539,13.55641 -416.93173,-4.7348 -504.834556,2.49424 -7.460485,0.61354 -21.335035,-0.0154 -21.412441,7.71646"
         id="path6081"
         sodipodi:nodetypes="cssc" /><path
         style="fill:none;stroke:#000000;stroke-width:0.4;stroke-linecap:butt;stroke-linejoin:miter;stroke-dasharray:none;stroke-opacity:1;marker-end:url(#TriangleStart-0)"
         d="m 449.45813,134.36484 c 14.47475,1.37096 17.60096,14.03246 3.89336,17.02119 -62.17539,13.55641 -416.93173,-4.7348 -504.834556,2.49424 -7.460485,0.61354 -21.335035,-0.0154 -21.412441,7.71646"
         id="path6081-2"
         sodipodi:nodetypes="cssc" /><path
         style="fill:none;stroke:#000000;stroke-width:0.4;stroke-linecap:butt;stroke-linejoin:miter;stroke-dasharray:none;stroke-opacity:1;marker-end:url(#TriangleStart-0-6)"
         d="m 449.45813,181.0928 c 14.47475,1.37096 17.60096,14.03246 3.89336,17.02119 -62.17539,13.55641 -416.93173,-4.7348 -504.834556,2.49424 -7.460485,0.61354 -21.335035,-0.0154 -21.412441,7.71646"
         id="path6081-2-8"
         sodipodi:nodetypes="cssc" /><text
         xml:space="preserve"
         transform="matrix(0.26458333,0,0,0.26458333,137.10845,-15.157938)"
         id="text75797"
         style="font-size:96px;line-height:1;font-family:Ubuntu;-inkscape-font-specification:Ubuntu;letter-spacing:0.4px;word-spacing:0px;white-space:pre;shape-inside:url(#rect75799)"><tspan
           x="-826.22461"
           y="412.59542"
           id="tspan76792">K Z K K Z Z Z K K Z K Z K K Z K Z Z K Z K K ......</tspan></text></g></g></svg>
