<?xml version="1.0" encoding="UTF-8" standalone="no"?>
<!-- Created with Inkscape (http://www.inkscape.org/) -->

<svg
   width="309.9017mm"
   height="78.074593mm"
   viewBox="0 0 309.9017 78.074592"
   version="1.1"
   id="svg1"
   xml:space="preserve"
   inkscape:version="1.3.2 (1:1.3.2+202311252150+091e20ef0f)"
   sodipodi:docname="angles.svg"
   xmlns:inkscape="http://www.inkscape.org/namespaces/inkscape"
   xmlns:sodipodi="http://sodipodi.sourceforge.net/DTD/sodipodi-0.dtd"
   xmlns="http://www.w3.org/2000/svg"
   xmlns:svg="http://www.w3.org/2000/svg"><sodipodi:namedview
     id="namedview1"
     pagecolor="#ffffff"
     bordercolor="#666666"
     borderopacity="1.0"
     inkscape:showpageshadow="2"
     inkscape:pageopacity="0.0"
     inkscape:pagecheckerboard="0"
     inkscape:deskcolor="#d1d1d1"
     inkscape:document-units="mm"
     inkscape:zoom="0.76702441"
     inkscape:cx="642.74356"
     inkscape:cy="91.913633"
     inkscape:window-width="1848"
     inkscape:window-height="1043"
     inkscape:window-x="1992"
     inkscape:window-y="0"
     inkscape:window-maximized="1"
     inkscape:current-layer="layer1" /><defs
     id="defs1"><rect
       x="266.5473"
       y="366.33316"
       width="49.085545"
       height="43.329868"
       id="rect3" /><style
       type="text/css"
       id="style1">
   <![CDATA[
    .fil0 {fill:#1F1A17;fill-rule:nonzero}
   ]]>
  </style></defs><g
     inkscape:label="Layer 1"
     inkscape:groupmode="layer"
     id="layer1"
     transform="translate(-46.766129,-79.638688)"><g
       id="g6"><path
         style="fill:none;stroke:#000000;stroke-width:1;stroke-linecap:round;stroke-linejoin:round;stroke-dasharray:none;stroke-opacity:1"
         d="M 47.266129,154.2156 87.684286,130.98963"
         id="path1"
         sodipodi:nodetypes="cc" /><path
         style="fill:none;stroke:#000000;stroke-width:1;stroke-linecap:round;stroke-linejoin:round;stroke-dasharray:none;stroke-opacity:1"
         d="m 87.621022,130.95635 45.730788,24.05767"
         id="path2" /><path
         style="fill:none;stroke:#000000;stroke-width:1;stroke-linecap:round;stroke-linejoin:round;stroke-dasharray:none;stroke-opacity:1"
         d="M 55.107388,89.447017 87.684285,130.98963 104.91222,82.33795"
         id="path3" /></g><text
       xml:space="preserve"
       transform="scale(0.26458333)"
       id="text3"
       style="font-size:22.6667px;line-height:1;font-family:Ubuntu;-inkscape-font-specification:Ubuntu;letter-spacing:0px;word-spacing:0px;white-space:pre;shape-inside:url(#rect3);display:inline" /><text
       xml:space="preserve"
       style="font-size:5.99723px;line-height:1;font-family:Ubuntu;-inkscape-font-specification:Ubuntu;letter-spacing:0px;word-spacing:0px;stroke-width:0.264583"
       x="75.505653"
       y="104.42145"
       id="text4"><tspan
         sodipodi:role="line"
         id="tspan4"
         style="stroke-width:0.264583"
         x="75.505653"
         y="104.42145" /></text><g
       id="Layer_x0020_1-2"
       inkscape:label="Layer 1"
       inkscape:groupmode="layer"
       transform="matrix(0.26458333,0,0,0.26458333,56.848946,125.22879)"
       style="clip-rule:evenodd;fill-rule:evenodd;image-rendering:optimizeQuality;shape-rendering:geometricPrecision;text-rendering:geometricPrecision">
  <metadata
   id="CorelCorpID_0Corel-Layer-0" />
  
  
  
  
  
  
  
  
  
  
  
  
  
  
  
  
  
  
  
  
  
  
  
  
  <path
   id="123456789101112131415161718192021222324-0"
   class="fil0"
   d="m 142.58866,108.87252 c -1.38898,0.48661 -2.84646,0.88937 -4.36063,1.1811 -1.51417,0.30591 -2.70827,0.45827 -3.58346,0.45827 -2.27835,0 -4.00039,-0.66614 -5.16614,-1.98661 -1.16693,-1.30512 -1.97244,-3.66614 -2.44488,-7.05472 -0.69449,1.16693 -1.55551,2.3752 -2.58307,3.59646 -1.01457,1.23661 -2.06929,2.23701 -3.19488,3 -1.26378,0.88937 -2.55591,1.58386 -3.86102,2.0563 -1.30512,0.47244 -2.8748,0.70866 -4.72205,0.70866 -2.25,0 -4.41732,-0.50079 -6.48661,-1.5 -2.06929,-1.01457 -3.91654,-2.44488 -5.51339,-4.32047 -1.59803,-1.87441 -2.86181,-4.12441 -3.77835,-6.749999 -0.930709,-2.63858 -1.38898,-5.54173 -1.38898,-8.70827 0,-2.90197 0.486614,-5.66693 1.45866,-8.26417 0.98622,-2.61024 2.34685,-4.90276 4.11142,-6.87402 1.68071,-1.87559 3.68031,-3.33425 6,-4.40315 2.31969,-1.05591 4.73622,-1.58386 7.22244,-1.58386 3.23622,0 5.97165,0.77834 8.22165,2.34803 2.25,1.55551 3.91654,3.73583 4.97244,6.52795 l 1.01339,-7.77874 h 7.56969 c -0.1937,1.9311 -0.61063,4.80591 -1.24961,8.62559 -0.6248,3.83268 -1.3748,8.01378 -2.20866,12.5421 0.0839,3.98504 0.52795,7.31929 1.36181,9.985039 0.83268,2.66693 1.88858,4.38898 3.1937,5.15315 0.40276,0.23622 1.1811,0.37559 2.31969,0.40275 1.13858,0.0283 2.16614,0.0413 3.09685,0.0413 v 2.59724 z m -16.3193,-20.499199 c -0.1937,-1.98661 -0.49961,-3.98622 -0.9437,-6.02835 -0.4311,-2.02795 -1.08425,-3.83268 -1.94528,-5.40236 -0.84685,-1.61102 -1.92992,-2.90315 -3.27756,-3.88937 -1.34764,-1.00039 -3,-1.48583 -4.98661,-1.48583 -3.1937,0 -5.84646,1.63937 -7.95827,4.91693 -2.09646,3.29173 -3.15236,7.80472 -3.15236,13.5555 0,2.19449 0.23622,4.27795 0.69448,6.25039 0.45827,1.95827 1.11142,3.666138 1.95827,5.096459 0.88937,1.52835 2.06929,2.75079 3.51378,3.68031 1.45866,0.94488 3.18071,1.40315 5.19449,1.40315 3.30592,0 5.87481,-1.47165 7.72206,-4.44449 1.84724,-2.971649 2.90315,-7.527169 3.18071,-13.652399 z"
   style="fill:#000000;fill-opacity:1;fill-rule:nonzero" />
  <path
   id="12345678910111213141516171819202122232425-6"
   class="fil0"
   d="m 214.66366,-27.144959 c 1.70787,1.54252 3,3.41693 3.88937,5.59724 0.8752,2.18031 1.31929,4.58386 1.31929,7.22244 0,5.7779499 -1.80591,10.6393999 -5.43071,14.61139993 -3.6248,3.95786997 -8.22283,5.93030997 -13.8201,5.93030997 -2.36102,0 -4.34646,-0.27756 -5.95748,-0.84685 -1.61102,-0.56929 -2.88898,-1.19409 -3.84803,-1.87559 h -0.3189 V 23.314091 h -7.61102 v -58.9169 c 0,-4.07008 0.30473,-7.3063 0.91654,-9.69449 0.61063,-2.38937 2.05512,-4.77756 4.33346,-7.19528 1.48583,-1.59685 3.37441,-2.8878 5.65276,-3.87402 2.27717,-0.97323 4.84724,-1.45866 7.6937,-1.45866 2.11181,0 4.12559,0.26339 6.01417,0.77717 1.90276,0.51378 3.59764,1.32047 5.09764,2.43071 1.48583,1.09724 2.65276,2.45906 3.49961,4.09724 0.83386,1.63937 1.25079,3.63898 1.25079,6 0,2.16732 -0.40276,4.05591 -1.22244,5.65276 -0.80551,1.59803 -1.79173,2.88898 -2.95866,3.8752 -1.13858,1.00039 -2.43071,1.79173 -3.8752,2.38937 -1.43031,0.59645 -2.73543,0.97204 -3.90236,1.09724 l 0.16653,0.3744 c 1.24961,0.0839 2.73661,0.45827 4.45866,1.11142 1.72205,0.66733 3.26339,1.6252 4.65236,2.8748 z m -3.29173,12.9862 c 0,-1.90276 -0.16654,-3.81969 -0.47244,-5.74961 -0.30472,-1.91693 -0.84685,-3.51378 -1.61102,-4.79173 -0.80551,-1.33346 -1.91693,-2.3752 -3.30591,-3.13937 -1.40197,-0.76299 -3.1937,-1.13858 -5.40236,-1.13858 h -3.81969 v -3.86102 h 2.76378 c 1.19528,0 2.43071,-0.20787 3.72283,-0.63898 1.29213,-0.41693 2.40236,-1.05591 3.3189,-1.9311 1.05591,-0.97204 1.88976,-2.1248 2.48622,-3.45827 0.59764,-1.31929 0.88937,-3.11102 0.88937,-5.3752 0,-3.36024 -0.80551,-5.94331 -2.44488,-7.76339 -1.6252,-1.8189 -3.75,-2.72244 -6.38858,-2.72244 -1.56969,0 -2.95866,0.2504 -4.16693,0.76418 -1.20827,0.51378 -2.31969,1.47165 -3.36142,2.84764 -0.9437,1.27677 -1.6937,3.04134 -2.25,5.29134 -0.55512,2.25 -0.83268,4.91693 -0.83268,7.97244 v 34.5968999 c 0.56929,1.73622 1.72205,3.25039003 3.45827,4.55551 1.73622,1.3063 3.72165,1.94528 5.97165,1.94528 3.47244,0 6.25039,-1.54252 8.33386,-4.65354 2.06929,-3.11102 3.11102,-7.36063 3.11102,-12.7499999 z"
   style="fill:#000000;fill-opacity:1;fill-rule:nonzero" />
  <path
   id="1234567891011121314151617181920212223242526-3"
   class="fil0"
   d="m 107.79332,-61.39402 c 0,2.07047 -0.1252,3.69449 -0.37559,4.90276 -0.23622,1.20945 -0.56929,2.09764 -0.97205,2.66693 -0.40275,0.56929 -0.86102,0.93071 -1.36063,1.09724 -0.50078,0.16653 -1.08425,0.25039 -1.73622,0.25039 -1.3748,0 -2.43071,-0.44409 -3.15354,-1.31929 -0.721646,-0.88937 -1.083066,-2.20866 -1.083066,-3.97205 0,-1.90276 0.18071,-3.98622 0.51378,-6.26457 0.34725,-2.27717 0.833856,-4.65236 1.485826,-7.12441 -2.082276,-6.23622 -4.124406,-11.6398 -6.096846,-16.2094 -1.98543,-4.58268 -4.3748,-10.0417 -7.16693,-16.389 -0.6248,-1.3748 -1.48583,-2.34685 -2.61024,-2.90197 -1.11142,-0.5563 -2.54173,-0.87519 -4.3063,-0.95905 v -2.63858 l 12.0839,-0.90236 0.56929,0.56929 c 0.73583,1.90276 1.72205,4.23543 2.97165,7.02756 1.25079,2.77795 2.54173,5.79213 3.861016,9.04134 1.02874,2.50039 2.09764,5.41772 3.19488,8.75079 1.09724,3.34724 1.75039,5.93031 1.9311,7.77756 0.90237,-2.36102 1.98543,-4.79173 3.26339,-7.29213 1.27795,-2.48622 2.22283,-4.47165 2.84764,-5.93031 0.68032,-1.61102 1.16693,-2.90315 1.48583,-3.91654 0.30591,-1.00039 0.45827,-1.91693 0.45827,-2.76378 0,-1.6252 -0.19488,-3.29173 -0.59764,-4.99961 -0.41574,-1.70906 -0.61063,-3.1122 -0.61063,-4.19528 0,-1.19409 0.4441,-2.26417 1.33346,-3.23622 0.90237,-0.95788 2.05512,-1.44449 3.45827,-1.44449 1.44449,0 2.58307,0.41693 3.41693,1.22244 0.84685,0.81968 1.26378,1.99961 1.26378,3.54213 0,1.70787 -0.41693,3.54094 -1.23661,5.48622 -0.83267,1.95827 -1.79173,4.01339 -2.8748,6.15236 -1.6252,3.22205 -3.52795,6.81969 -5.70827,10.7776 -2.19449,3.95906 -4.01339,7.9311 -5.47205,11.889 0.26339,2.41654 0.54095,4.59803 0.80552,6.54213 0.27755,1.95827 0.41692,3.54213 0.41692,4.76339 z"
   style="fill:#000000;fill-opacity:1;fill-rule:nonzero" />
  <path
   id="123456789101112131415161718192021222324252627-9"
   class="fil0"
   d="m 30.680829,15.722596 c 0,2.93031 -0.48661,5.67992 -1.45866,8.235831 -0.97205,2.57008 -2.30551,4.73622 -3.98622,6.52795 -1.76339,1.9311 -3.80551,3.41693 -6.1252,4.48583 -2.31969,1.05591 -4.98543,1.58386 -7.99961,1.58386 -2.8748002,0 -5.5417302,-0.52795 -7.9866102,-1.58386 -2.45787002,-1.0689 -4.54134,-2.51339 -6.24921,-4.36063 -1.70906,-1.84724 -3.02835,-4.02756 -3.97323,-6.5563 -0.93071,-2.513391 -1.40197,-5.221651 -1.40197,-8.124801 0,-2.93031 0.44409,-5.48622 1.31929,-7.6807097 0.88819,-2.18031 2.1248,-4.13858 3.72165,-5.8747996 1.55551,-1.68071001 3.40275998,-3.04134001 5.55591,-4.0689 2.16614,-1.02874 4.43031,-1.73622 6.81969,-2.11181 v -0.24921 c -4.77756,-1.73622 -8.25000002,-3.5563 -10.4173,-5.45906 -2.16614,-1.8885797 -3.24921,-4.3192897 -3.24921,-7.2779497 0,-1.22244 0.30472,-2.45787 0.91653,-3.72165 0.59646,-1.26378 1.59685,-2.44488 2.98582998,-3.5563 1.33346,-1.0689 3.11102002,-1.94409 5.33386002,-2.62441 2.22165,-0.69449 4.86024,-1.04173 7.9299202,-1.04173 4.66654,0 8.38937,0.83267 11.1945,2.48622 2.79213,1.65236 4.1811,3.83268 4.1811,6.54094 0,1.52835 -0.32007,2.76496 -0.97204,3.70866 -0.65315,0.94488 -1.70906,1.43031 -3.16654,1.43031 -1.63937,0 -2.86181,-0.38859 -3.66732,-1.15276 -0.81969,-0.75 -1.22244,-1.62402 -1.22244,-2.59724 0,-1.13858 0.12519,-2.22165 0.38858,-3.23622 0.25039,-1.01339 0.44528,-1.83307 0.54213,-2.45787 -0.51378,-0.40276 -1.3748,-0.79134 -2.59724,-1.13858 -1.22244,-0.36142 -2.73543,-0.52796 -4.55551,-0.52796 -2.6114202,0 -4.7917302,0.73583 -6.5692902,2.20866 -1.77756,1.48583 -2.66693,3.22205 -2.66693,5.23583 0,2.22165 0.91653,4.09724 2.73661,5.61142 1.83307,1.52717 5.2216502,3.6106297 10.1528002,6.2633897 2.83346,1.52835 5.19449,3.06969 7.12441,4.63936999 1.9311,1.58268 3.4311,3.20787001 4.51417,4.88857961 1.08307,1.70787 1.83307,3.48661 2.23583,5.33386 0.41693,1.8330697 0.61181,3.9165397 0.61181,6.2220497 z m -8.45906,0.3189 c 0,-4.73622 -0.86102,-8.5688997 -2.5689,-11.4719997 -1.70906,-2.9031496 -4.29213,-4.88857961 -7.76457,-5.9858296 -3.4996102,0 -6.3602402,1.55550999 -8.5830702,4.6665396 -2.22165,3.11102 -3.34724002,7.3747997 -3.34724002,12.7912997 0,2.38937 0.23622,4.61102 0.69449,6.6815 0.45827002,2.055121 1.16693002,3.902361 2.12480002,5.527561 0.88937,1.58268 2.04213,2.83346 3.4311,3.79134 1.40197,0.94488 3,1.41614 4.8189002,1.41614 1.84724,0 3.48661,-0.45827 4.90276,-1.3748 1.4315,-0.93071 2.61142,-2.20748 3.56929,-3.83268 0.91771,-1.65354 1.59803,-3.51378 2.0563,-5.570081 0.44409,-2.06929 0.66614,-4.27795 0.66614,-6.63898 z"
   style="fill:#000000;fill-opacity:1;fill-rule:nonzero" />
  
  
  
  
  
  
  
  
  
  
  
  
  
  
  
  
  
  
  
  
  
 </g><g
       id="g5"
       transform="translate(30.348085,6.7801945)"><path
         style="fill:none;stroke:#000000;stroke-width:1;stroke-linecap:round;stroke-linejoin:round;stroke-dasharray:none;stroke-opacity:1"
         d="m 160.506,74.629941 -6.6258,54.071559 42.49067,20.46014"
         id="path3-8"
         sodipodi:nodetypes="ccc" /><path
         style="fill:none;stroke:#000000;stroke-width:1;stroke-linecap:round;stroke-linejoin:round;stroke-dasharray:none;stroke-opacity:1"
         d="M 153.8802,128.7015 184.5115,79.980625"
         id="path4" /><path
         style="fill:none;stroke:#000000;stroke-width:1;stroke-linecap:round;stroke-linejoin:round;stroke-dasharray:none;stroke-opacity:1"
         d="M 197.75821,90.02028 153.8802,128.7015"
         id="path5"
         sodipodi:nodetypes="cc" /></g><g
       id="g5-0"
       transform="translate(155.376,1.5201815)"><path
         style="fill:none;stroke:#000000;stroke-width:1;stroke-linecap:round;stroke-linejoin:round;stroke-dasharray:none;stroke-opacity:1"
         d="M 157.68536,78.618507 153.8802,128.7015 123.60677,155.6931"
         id="path3-8-0"
         sodipodi:nodetypes="ccc" /><path
         style="fill:none;stroke:#000000;stroke-width:1;stroke-linecap:round;stroke-linejoin:round;stroke-dasharray:none;stroke-opacity:1"
         d="M 153.8802,128.7015 200.79184,99.999517"
         id="path4-5"
         sodipodi:nodetypes="cc" /><path
         style="fill:none;stroke:#000000;stroke-width:1;stroke-linecap:round;stroke-linejoin:round;stroke-dasharray:none;stroke-opacity:1"
         d="m 174.6302,155.18265 -20.75,-26.48115"
         id="path5-0"
         sodipodi:nodetypes="cc" /></g></g></svg>
