<?xml version="1.0" encoding="UTF-8" standalone="no"?>
<svg
   viewBox="0 0 681.5 421.5"
   version="1.1"
   id="svg154"
   sodipodi:docname="fib-squares-empty.svg"
   inkscape:version="1.2.1 (1:1.2.1+202210291244+9c6d41e410)"
   xmlns:inkscape="http://www.inkscape.org/namespaces/inkscape"
   xmlns:sodipodi="http://sodipodi.sourceforge.net/DTD/sodipodi-0.dtd"
   xmlns="http://www.w3.org/2000/svg"
   xmlns:svg="http://www.w3.org/2000/svg">
  <defs
     id="defs158" />
  <sodipodi:namedview
     id="namedview156"
     pagecolor="#ffffff"
     bordercolor="#666666"
     borderopacity="1.0"
     inkscape:showpageshadow="2"
     inkscape:pageopacity="0.0"
     inkscape:pagecheckerboard="0"
     inkscape:deskcolor="#d1d1d1"
     showgrid="false"
     inkscape:zoom="0.69309953"
     inkscape:cx="477.56489"
     inkscape:cy="115.42354"
     inkscape:window-width="1848"
     inkscape:window-height="1043"
     inkscape:window-x="3912"
     inkscape:window-y="0"
     inkscape:window-maximized="1"
     inkscape:current-layer="svg154" />
  <rect
     style="fill:#e2fae2;stroke:none;stroke-width:7.55906;stroke-linecap:square;paint-order:markers stroke fill;fill-opacity:1"
     id="rect588"
     width="681.5"
     height="421.5"
     x="0"
     y="0" />
  <rect
     x="0.75002396"
     y="0.75"
     width="420"
     height="420"
     style="fill:none;stroke:#000000;stroke-width:1.5px"
     id="rect118" />
  <rect
     x="420.75003"
     y="0.75"
     width="260"
     height="260"
     style="fill:none;stroke:#000000;stroke-width:1.5px;stroke-miterlimit:10"
     id="rect120" />
  <rect
     x="520.75"
     y="260.75"
     width="160"
     height="160"
     style="fill:none;stroke:#000000;stroke-width:1.5px;stroke-miterlimit:10"
     id="rect122" />
  <rect
     x="420.75003"
     y="320.75"
     width="100"
     height="100"
     style="fill:none;stroke:#000000;stroke-width:1.5px;stroke-miterlimit:10"
     id="rect124" />
  <rect
     x="420.75003"
     y="260.75"
     width="60"
     height="60"
     style="fill:none;stroke:#000000;stroke-width:1.5px;stroke-miterlimit:10"
     id="rect126" />
  <rect
     x="480.75003"
     y="260.75"
     width="40"
     height="40"
     style="fill:none;stroke:#000000;stroke-width:1.5px;stroke-miterlimit:10"
     id="rect128" />
  <rect
     x="500.75"
     y="300.75"
     width="20"
     height="20"
     style="fill:none;stroke:#000000;stroke-width:1.5px;stroke-miterlimit:10"
     id="rect130" />
  <rect
     x="480.75003"
     y="300.75"
     width="20"
     height="20"
     style="fill:none;stroke:#000000;stroke-width:1.5px;stroke-miterlimit:10"
     id="rect132" />
</svg>
