<?xml version="1.0" encoding="UTF-8" standalone="no"?>
<!-- Created with Inkscape (http://www.inkscape.org/) -->

<svg
   width="129.88329mm"
   height="113.40028mm"
   viewBox="0 0 129.88329 113.40028"
   version="1.1"
   id="svg5"
   xml:space="preserve"
   inkscape:version="1.2.2 (1:1.2.2+202212051550+b0a8486541)"
   sodipodi:docname="triangle.svg"
   xmlns:inkscape="http://www.inkscape.org/namespaces/inkscape"
   xmlns:sodipodi="http://sodipodi.sourceforge.net/DTD/sodipodi-0.dtd"
   xmlns="http://www.w3.org/2000/svg"
   xmlns:svg="http://www.w3.org/2000/svg"><sodipodi:namedview
     id="namedview7"
     pagecolor="#ffffff"
     bordercolor="#666666"
     borderopacity="1.0"
     inkscape:showpageshadow="2"
     inkscape:pageopacity="0.0"
     inkscape:pagecheckerboard="0"
     inkscape:deskcolor="#d1d1d1"
     inkscape:document-units="mm"
     showgrid="false"
     inkscape:zoom="0.68923303"
     inkscape:cx="139.28526"
     inkscape:cy="289.45217"
     inkscape:window-width="1848"
     inkscape:window-height="1016"
     inkscape:window-x="72"
     inkscape:window-y="27"
     inkscape:window-maximized="1"
     inkscape:current-layer="layer1" /><defs
     id="defs2" /><g
     inkscape:label="Layer 1"
     inkscape:groupmode="layer"
     id="layer1"
     transform="translate(-45.569344,-12.308054)"><g
       id="g2305"
       transform="matrix(4.4237649,0,0,4.4237649,-311.6809,-477.88534)"
       style="stroke:#000000;stroke-width:0.37176;stroke-dasharray:none;stroke-opacity:1"><path
         style="fill:none;stroke:#000000;stroke-width:0.406893;stroke-linecap:butt;stroke-linejoin:miter;stroke-miterlimit:10;stroke-dasharray:none;stroke-opacity:1"
         d="M 81.764472,135.43602 H 109.76483 L 95.76534,111.21563 Z m 0,0"
         id="path1040" /><path
         style="fill:#ec004b;fill-opacity:1;fill-rule:nonzero;stroke:#ec004b;stroke-width:0.56513;stroke-linecap:butt;stroke-linejoin:miter;stroke-miterlimit:10;stroke-dasharray:none;stroke-opacity:1"
         d="m 96.490188,121.43516 c 0,-0.40101 -0.323839,-0.72485 -0.724848,-0.72485 -0.401009,0 -0.726226,0.32384 -0.726226,0.72485 0,0.40101 0.325217,0.72622 0.726226,0.72622 0.401009,0 0.724848,-0.32521 0.724848,-0.72622 z m 0,0"
         id="path1042" /><path
         style="fill:#ec004b;fill-opacity:1;fill-rule:nonzero;stroke:#ec004b;stroke-width:0.56513;stroke-linecap:butt;stroke-linejoin:miter;stroke-miterlimit:10;stroke-dasharray:none;stroke-opacity:1"
         d="m 90.891219,128.43559 c 0,-0.40101 -0.325217,-0.72623 -0.726226,-0.72623 -0.401009,0 -0.726226,0.32522 -0.726226,0.72623 0,0.40101 0.325217,0.72623 0.726226,0.72623 0.401009,0 0.726226,-0.32522 0.726226,-0.72623 z m 0,0"
         id="path1044" /><path
         style="fill:#ec004b;fill-opacity:1;fill-rule:nonzero;stroke:#ec004b;stroke-width:0.56513;stroke-linecap:butt;stroke-linejoin:miter;stroke-miterlimit:10;stroke-dasharray:none;stroke-opacity:1"
         d="m 100.69045,131.23576 c 0,-0.40101 -0.32522,-0.72622 -0.72485,-0.72622 -0.401009,0 -0.726226,0.32521 -0.726226,0.72622 0,0.40101 0.325217,0.72485 0.726226,0.72485 0.39963,0 0.72485,-0.32384 0.72485,-0.72485 z m 0,0"
         id="path1046" /><path
         style="fill:#ec004b;fill-opacity:1;fill-rule:nonzero;stroke:#ec004b;stroke-width:0.56513;stroke-linecap:butt;stroke-linejoin:miter;stroke-miterlimit:10;stroke-dasharray:none;stroke-opacity:1"
         d="m 99.290361,115.83481 c 0,-0.39963 -0.325217,-0.72485 -0.724848,-0.72485 -0.401009,0 -0.726226,0.32522 -0.726226,0.72485 0,0.40101 0.325217,0.72623 0.726226,0.72623 0.399631,0 0.724848,-0.32522 0.724848,-0.72623 z m 0,0"
         id="path1048" /><path
         style="fill:#ec004b;fill-opacity:1;fill-rule:nonzero;stroke:#ec004b;stroke-width:0.56513;stroke-linecap:butt;stroke-linejoin:miter;stroke-miterlimit:10;stroke-dasharray:none;stroke-opacity:1"
         d="m 82.490698,135.43602 c 0,-0.40101 -0.325217,-0.72622 -0.726226,-0.72622 -0.401009,0 -0.724848,0.32521 -0.724848,0.72622 0,0.39964 0.323839,0.72485 0.724848,0.72485 0.401009,0 0.726226,-0.32521 0.726226,-0.72485 z m 0,0"
         id="path1050" /></g></g></svg>
